<?xml version="1.0" encoding="UTF-8" standalone="no"?>
<!-- Created with Inkscape (http://www.inkscape.org/) -->

<svg
   xmlns:dc="http://purl.org/dc/elements/1.1/"
   xmlns:cc="http://creativecommons.org/ns#"
   xmlns:rdf="http://www.w3.org/1999/02/22-rdf-syntax-ns#"
   xmlns:svg="http://www.w3.org/2000/svg"
   xmlns="http://www.w3.org/2000/svg"
   xmlns:xlink="http://www.w3.org/1999/xlink"
   xmlns:sodipodi="http://sodipodi.sourceforge.net/DTD/sodipodi-0.dtd"
   xmlns:inkscape="http://www.inkscape.org/namespaces/inkscape"
   version="1.1"
   id="svg2"
   width="512"
   height="298.66666"
   viewBox="0 0 512 298.66666"
   sodipodi:docname="SuperSIMDX.svg"
   inkscape:export-filename="C:\Users\Promyk\Desktop\path4565.png"
   inkscape:export-xdpi="90"
   inkscape:export-ydpi="90"
   inkscape:version="0.92.1 r15371">
  <metadata
     id="metadata8">
    <rdf:RDF>
      <cc:Work
         rdf:about="">
        <dc:format>image/svg+xml</dc:format>
        <dc:type
           rdf:resource="http://purl.org/dc/dcmitype/StillImage" />
      </cc:Work>
    </rdf:RDF>
  </metadata>
  <defs
     id="defs6">
    <linearGradient
       inkscape:collect="always"
       id="linearGradient4742">
      <stop
         style="stop-color:#ffffff;stop-opacity:1;"
         offset="0"
         id="stop4738" />
      <stop
         style="stop-color:#ffffff;stop-opacity:0;"
         offset="1"
         id="stop4740" />
    </linearGradient>
    <linearGradient
       inkscape:collect="always"
       id="linearGradient4656">
      <stop
         style="stop-color:#000000;stop-opacity:1;"
         offset="0"
         id="stop4652" />
      <stop
         style="stop-color:#000000;stop-opacity:0;"
         offset="1"
         id="stop4654" />
    </linearGradient>
    <linearGradient
       inkscape:collect="always"
       id="linearGradient4630">
      <stop
         style="stop-color:#ffdd55;stop-opacity:1;"
         offset="0"
         id="stop4626" />
      <stop
         style="stop-color:#ffdd55;stop-opacity:0;"
         offset="1"
         id="stop4628" />
    </linearGradient>
    <linearGradient
       inkscape:collect="always"
       id="linearGradient4614">
      <stop
         style="stop-color:#000000;stop-opacity:1;"
         offset="0"
         id="stop4610" />
      <stop
         style="stop-color:#000000;stop-opacity:0;"
         offset="1"
         id="stop4612" />
    </linearGradient>
    <linearGradient
       inkscape:collect="always"
       id="linearGradient4586">
      <stop
         style="stop-color:#00ffff;stop-opacity:1;"
         offset="0"
         id="stop4582" />
      <stop
         style="stop-color:#00ffff;stop-opacity:0;"
         offset="1"
         id="stop4584" />
    </linearGradient>
    <linearGradient
       inkscape:collect="always"
       xlink:href="#linearGradient4586"
       id="linearGradient4590"
       x1="390"
       y1="128.66666"
       x2="390"
       y2="48.666656"
       gradientUnits="userSpaceOnUse" />
    <linearGradient
       inkscape:collect="always"
       xlink:href="#linearGradient4656"
       id="linearGradient4658"
       x1="230"
       y1="148.66666"
       x2="210"
       y2="88.666656"
       gradientUnits="userSpaceOnUse" />
    <linearGradient
       inkscape:collect="always"
       xlink:href="#linearGradient4630"
       id="linearGradient4668"
       gradientUnits="userSpaceOnUse"
       x1="200"
       y1="208.66666"
       x2="200"
       y2="18.666656" />
    <linearGradient
       inkscape:collect="always"
       xlink:href="#linearGradient4614"
       id="linearGradient4670"
       gradientUnits="userSpaceOnUse"
       x1="200"
       y1="208.66666"
       x2="200"
       y2="18.666656" />
    <linearGradient
       inkscape:collect="always"
       xlink:href="#linearGradient4630"
       id="linearGradient4672"
       gradientUnits="userSpaceOnUse"
       x1="200"
       y1="208.66666"
       x2="200"
       y2="18.666656" />
    <linearGradient
       inkscape:collect="always"
       xlink:href="#linearGradient4614"
       id="linearGradient4674"
       gradientUnits="userSpaceOnUse"
       x1="200"
       y1="208.66666"
       x2="200"
       y2="18.666656" />
    <linearGradient
       inkscape:collect="always"
       xlink:href="#linearGradient4742"
       id="linearGradient4744"
       x1="410"
       y1="178.66666"
       x2="410"
       y2="98.666656"
       gradientUnits="userSpaceOnUse" />
  </defs>
  <sodipodi:namedview
     pagecolor="#ffffff"
     bordercolor="#666666"
     borderopacity="1"
     objecttolerance="10"
     gridtolerance="10"
     guidetolerance="10"
     inkscape:pageopacity="0"
     inkscape:pageshadow="2"
     inkscape:window-width="1920"
     inkscape:window-height="1027"
     id="namedview4"
     showgrid="true"
     inkscape:zoom="1.5688932"
     inkscape:cx="333.09497"
     inkscape:cy="64.206332"
     inkscape:window-x="-8"
     inkscape:window-y="-8"
     inkscape:window-maximized="1"
     inkscape:current-layer="svg2">
    <inkscape:grid
       type="xygrid"
       id="grid4561" />
  </sodipodi:namedview>
  <g
     id="g4758">
    <path
       inkscape:connector-curvature="0"
       id="path4523"
       d="m 311.56258,178.02699 v -1.93297 l 1.85006,-0.20931 c 2.78424,-0.315 6.65106,-1.53307 9.6117,-3.02775 6.66765,-3.36616 12.05071,-8.43474 19.68507,-18.53504 3.5473,-4.69311 34.794,-48.83212 34.794,-49.14993 0,-0.44245 -26.44467,-43.486561 -30.29185,-49.306198 -7.73591,-11.702101 -13.66749,-17.916717 -20.02343,-20.978866 -2.8044,-1.351099 -7.30346,-2.567443 -10.60224,-2.866371 l -2.29263,-0.207753 v -1.930307 -1.930308 h 31.5545 31.55451 v 1.972157 1.972157 h -1.33865 c -1.9257,0 -5.7032,0.776009 -7.38267,1.51662 -1.78844,0.788664 -3.90969,2.792566 -4.65749,4.399851 -1.2067,2.593581 -0.46163,6.332282 2.29767,11.529532 2.09726,3.950273 22.75076,38.17765 23.10094,38.28332 0.2333,0.0704 7.6813,-10.351478 23.79512,-33.29617 2.42667,-3.455359 4.85877,-7.162433 5.40466,-8.237943 2.0445,-4.027982 1.76717,-9.19107 -0.60983,-11.353188 -1.76429,-1.604797 -6.50433,-2.833887 -10.95154,-2.83973 l -1.7446,-0.0023 v -1.972158 -1.972156 h 24.2727 24.2727 v 1.972156 1.972158 l -1.13779,0.004 c -1.73343,0.0061 -6.37536,1.045521 -8.45071,1.892327 -3.79513,1.548537 -9.16977,5.824892 -13.10246,10.425033 -3.48723,4.079076 -8.39563,10.838463 -22.95183,31.60712 -8.32374,11.876231 -13.81558,19.981951 -13.71532,20.243221 0.3189,0.83104 31.4477,52.330786 35.62264,58.934386 2.30781,3.65031 4.9829,7.68247 5.94466,8.96034 3.85899,5.12739 7.80834,8.70197 11.45658,10.36942 1.68454,0.76993 6.13092,1.68331 8.19442,1.68331 h 1.17389 v 1.97215 1.97216 h -29.27894 -29.27895 v -1.92672 -1.92672 l 2.6819,-0.19037 c 3.17875,-0.22564 6.03376,-1.05064 7.49634,-2.16621 1.49747,-1.14217 2.76891,-3.53801 3.18421,-6.00014 0.39714,-2.35459 0.23938,-3.61318 -0.70796,-5.64798 -1.24258,-2.6689 -28.52305,-48.67763 -28.92974,-48.79023 -0.46636,-0.12912 -32.63473,45.89947 -34.03768,48.70331 -1.29049,2.57911 -1.31052,2.66635 -1.19865,5.22306 0.0944,2.15721 0.2545,2.8403 0.93992,4.00989 1.56761,2.67493 4.11039,3.95295 9.03711,4.54212 l 3.00165,0.35895 v 1.90552 1.90552 h -24.121 -24.12099 V 178.027 Z"
       style="opacity:1;fill:#008cff;fill-opacity:1;stroke:#ffd42a;stroke-width:2;stroke-miterlimit:4;stroke-dasharray:none" />
    <g
       style="fill:#ff9955"
       id="g4602">
      <path
         style="fill:#ff9955;stroke-width:0.8975842;stroke:#666666"
         d="M 69.991176,152.559 C 59.617406,148.29416 55.066866,141.02757 54.37801,127.62694 l -0.403726,-7.85386 h 9.085632 9.08564 v 2.27279 c 0,1.25003 0.57167,3.64099 1.27038,5.31326 3.40846,8.15758 13.09096,5.65387 13.09096,-3.38508 0,-5.33046 -1.75173,-7.31138 -11.67784,-13.20574 -18.0672,-10.72873 -24.021387,-23.348436 -18.92417,-40.109167 2.12884,-7.000053 4.41645,-10.722337 9.42948,-15.343191 7.04681,-6.495518 17.09032,-8.118452 25.66045,-4.146479 9.789484,4.537097 14.537674,11.786966 15.802004,24.127555 l 0.60242,5.879936 h -9.879194 -9.8792 l -0.48628,-3.62554 c -0.61459,-4.582131 -1.99573,-6.247888 -5.18035,-6.247888 -3.92562,0 -6.52866,3.905181 -5.96506,8.949018 0.51717,4.62828 1.26234,5.36061 13.91257,13.67285 9.79948,6.439066 14.757694,11.697656 16.332364,17.321826 1.65499,5.91103 0.73538,20.20075 -1.71221,26.60577 -3.60709,9.43931 -14.735114,16.95638 -25.024934,16.90455 -2.37755,-0.0119 -6.549,-0.97474 -9.52577,-2.19855 z m 61.843724,1.01805 c -5.57383,-1.84622 -8.69166,-3.74148 -12.29795,-7.47566 -7.66552,-7.93734 -8.79527,-15.5402 -8.79527,-59.189286 V 52.45427 h 10.32221 10.32222 l 0.0197,34.332594 c 0.018,31.472496 0.15815,34.637386 1.68145,37.991326 3.33195,7.33619 11.21741,7.33619 14.54937,0 1.52329,-3.35394 1.66337,-6.51883 1.68144,-37.991326 l 0.0197,-34.332594 h 10.32222 10.32222 l -0.0118,34.781384 c -0.0103,30.476806 -0.22002,35.790296 -1.69427,42.933506 -0.92537,4.48367 -2.30046,9.33062 -3.05577,10.77101 -2.12679,4.05582 -7.79519,9.05963 -12.74106,11.24722 -5.47676,2.42242 -15.49126,3.09653 -20.64443,1.38966 z m 41.73767,-50.04027 V 52.294708 l 18.17608,0.345023 c 20.37859,0.386831 25.03518,1.463698 30.8969,7.145096 6.03674,5.851045 9.49675,21.461907 7.5604,34.111007 -2.08801,13.639716 -6.01195,20.362446 -13.77518,23.600446 -4.2363,1.76693 -15.0658,4.07196 -19.13091,4.07196 h -3.08285 v 16.60531 16.60531 h -10.32223 -10.32221 z m 33.27965,-8.827006 c 2.33143,-2.33142 2.62371,-3.23906 2.62371,-8.14731 0,-4.90824 -0.29228,-5.81588 -2.62371,-8.147299 -2.27261,-2.27261 -3.29356,-2.623707 -7.62946,-2.623707 h -5.00575 v 10.771006 10.77101 h 5.00575 c 4.3359,0 5.35685,-0.35109 7.62946,-2.6237 z m 26.85848,8.906786 V 52.45427 h 22.43961 22.43961 v 11.668594 11.668594 h -11.6686 -11.6686 v 7.180676 7.18067 h 11.6686 11.6686 v 12.117386 12.11738 h -11.6686 -11.6686 v 7.62947 7.62946 h 11.6686 11.6686 v 12.56618 12.56618 H 256.15031 233.7107 Z m 48.46955,-0.0784 V 52.297393 l 18.62487,0.374637 c 20.8422,0.41924 25.73763,1.397571 31.26135,6.247451 1.7526,1.538801 4.2626,4.853743 5.5778,7.36654 2.21413,4.230322 2.41537,5.547424 2.7169,17.782173 0.29055,11.78901 0.10969,13.86939 -1.67772,19.298056 -1.58334,4.80886 -2.96491,7.02558 -6.5893,10.57253 -2.52224,2.46835 -5.34026,4.90214 -6.26227,5.40839 -1.55253,0.85247 -1.07178,2.12825 6.50748,17.26906 4.50113,8.99171 8.18386,16.75673 8.18386,17.2556 0,0.56167 -4.19111,0.90703 -11.00744,0.90703 h -11.00743 l -7.79046,-15.48333 -7.79047,-15.48332 -0.0514,15.48332 -0.0514,15.48333 H 292.5024 282.18018 Z m 32.82296,-1.23563 c 3.83388,-1.6019 5.77316,-5.683136 5.77316,-12.149686 0,-9.50964 -3.94565,-13.463763 -13.43493,-13.463763 h -4.51675 V 90.152844 103.6166 h 4.51675 c 2.48421,0 5.93201,-0.59133 7.66177,-1.31407 z"
         id="path4487"
         inkscape:connector-curvature="0" />
      <path
         style="opacity:1;fill:#ff9955;fill-opacity:1;stroke:#666666;stroke-width:0.67605633;stroke-miterlimit:4;stroke-dasharray:none"
         d="m 209.49218,204.56314 c -1.64966,-0.008 -2.09221,0.0774 -3.1914,0.61718 -3.97719,1.95323 -5.63295,6.50262 -3.97657,10.92969 0.6364,1.70093 2.40821,3.51986 4.125,4.23438 1.14413,0.4757 1.63065,0.55232 3.16407,0.48632 2.16734,-0.0934 3.56497,-0.68412 4.98632,-2.10546 4.01799,-4.01799 2.99334,-10.94154 -2.00195,-13.53516 -1.01849,-0.52882 -1.46714,-0.61895 -3.10547,-0.62695 z m -72.11328,0.32812 0.0176,1.74609 c 0.0155,1.57957 0.042,1.68176 0.28125,1.07032 0.1455,-0.37184 0.37308,-0.85814 0.50586,-1.08203 0.34218,-0.57696 1.79283,-1.03723 3.30859,-1.04883 l 1.29492,-0.01 v 6.82422 c 0,7.67623 -0.027,7.82422 -1.47656,7.82422 -0.42677,0 -0.77539,0.10067 -0.77539,0.22461 0,0.13985 1.23941,0.22656 3.26758,0.22656 2.02817,0 3.26758,-0.0867 3.26758,-0.22656 0,-0.12394 -0.35181,-0.22461 -0.78125,-0.22461 -1.32575,0 -1.35938,-0.1969 -1.35938,-7.77539 v -6.75977 l 1.46484,-0.0605 c 1.93306,-0.0805 2.86705,0.38088 3.53907,1.75 l 0.49804,1.01367 0.01,-1.7461 0.008,-1.74609 h -6.53515 z m 156.39453,0 -6.14062,0.0254 c -3.47485,0.0147 -5.75748,0.10097 -5.25782,0.19727 1.49119,0.28738 1.48243,0.24448 1.48243,7.5957 0,6.30435 -0.019,6.62449 -0.44922,7.05469 -0.25039,0.25039 -0.75138,0.45117 -1.12696,0.45117 -0.37183,0 -0.67578,0.10067 -0.67578,0.22461 0,0.14465 2.1707,0.22656 6.06446,0.22656 h 6.0664 l 0.60547,-1.81836 c 0.61986,-1.8614 0.63424,-2.57009 0.0273,-1.39648 -0.18703,0.36168 -0.75366,1.02889 -1.25781,1.48437 l -0.91601,0.82813 h -2.93555 -2.93359 l -0.22657,-0.59375 c -0.12433,-0.32707 -0.19856,-1.9238 -0.16406,-3.54883 l 0.0645,-2.95508 2.36914,0.0195 c 1.34455,0.0117 2.58442,0.13487 2.86524,0.28516 0.28869,0.1545 0.59735,0.64069 0.73828,1.16406 0.13293,0.49367 0.2885,0.89649 0.3457,0.89649 0.0572,0 0.0969,-1.24146 0.0879,-2.75977 -0.0153,-2.65687 -0.029,-2.72756 -0.33789,-1.88477 -0.49699,1.35598 -0.78948,1.47443 -3.64648,1.48243 l -2.53516,0.008 v -3.1543 -3.15625 l 2.87305,0.004 c 1.58028,0.002 3.11419,0.0678 3.4082,0.14648 0.36308,0.0972 0.70152,0.51023 1.05664,1.29102 l 0.52344,1.15039 0.0137,-1.63281 z m 6.90039,0 -2.26758,0.0234 c -1.70078,0.0173 -2.07016,0.0688 -1.48242,0.20703 1.57157,0.36974 1.58408,0.42422 1.58008,7.51367 -0.004,7.19116 -0.0492,7.42362 -1.41211,7.53711 -0.46194,0.0385 -0.83984,0.16479 -0.83984,0.28125 0,0.12035 1.16831,0.21289 2.70507,0.21289 1.65259,0 2.70508,-0.0888 2.70508,-0.22656 0,-0.12394 -0.3542,-0.22461 -0.78515,-0.22461 -1.43335,0 -1.48422,-0.25792 -1.41602,-7.00781 l 0.0586,-5.94922 3.04297,6.60351 c 1.67324,3.63207 3.13058,6.60348 3.23829,6.60352 0.1077,4e-5 1.50915,-2.87074 3.11523,-6.37891 1.60608,-3.50817 3.01453,-6.47404 3.12891,-6.59179 0.12725,-0.13095 0.20707,2.05578 0.20507,5.63281 -0.004,6.65518 -0.0591,6.93241 -1.41015,7.04492 -0.46194,0.0385 -0.83985,0.16479 -0.83985,0.28125 0,0.12235 1.37936,0.21289 3.26758,0.21289 1.88822,0 3.26758,-0.0905 3.26758,-0.21289 0,-0.11646 -0.3779,-0.24275 -0.83984,-0.28125 -1.35751,-0.11304 -1.40616,-0.36782 -1.41016,-7.30469 -0.004,-6.47573 0.12091,-7.44977 0.97656,-7.63086 0.26649,-0.0564 0.68766,-0.14486 0.93555,-0.19726 0.24789,-0.0524 -0.56768,-0.10865 -1.81055,-0.12305 l -2.25976,-0.0254 -2.80274,6.19336 c -1.54158,3.40654 -2.86736,6.1203 -2.94726,6.0293 -0.0799,-0.091 -1.39541,-2.87982 -2.92383,-6.19532 z m -31.125,0.0273 c -2.54266,0.0146 -3.9328,0.0926 -3.42187,0.19141 1.6582,0.32081 1.61914,0.13599 1.61914,7.54102 0,6.18994 -0.0281,6.64604 -0.42969,7.08984 -0.27344,0.30215 -0.70344,0.47461 -1.18359,0.47461 -0.41459,0 -0.75391,0.10067 -0.75391,0.22461 0,0.14025 1.27757,0.22656 3.38086,0.22656 2.10329,0 3.38086,-0.0863 3.38086,-0.22656 0,-0.12394 -0.3506,-0.22461 -0.77734,-0.22461 -1.28767,0 -1.47657,-0.516 -1.47657,-4.00781 v -3.00391 l 0.95117,0.0684 c 0.94884,0.0692 0.95502,0.0764 3.56446,3.67578 l 2.61328,3.60547 2.06836,0.0645 c 1.32087,0.0414 2.07031,-0.0187 2.07031,-0.16797 0,-0.1286 -0.20615,-0.23437 -0.45898,-0.23437 -0.87089,0 -2.16923,-0.87269 -3.07422,-2.06836 -1.74862,-2.31025 -3.48014,-4.72624 -3.58594,-5.00195 -0.0653,-0.17008 0.3851,-0.48115 1.15625,-0.80078 1.98176,-0.82139 2.97711,-2.75548 2.36914,-4.59766 -0.33404,-1.01214 -1.75128,-2.30287 -2.86914,-2.61328 -0.48486,-0.13463 -2.73145,-0.22875 -5.14258,-0.21485 z m 59.83008,0.01 c -3.17457,-0.003 -3.59282,0.036 -2.86719,0.26172 0.46746,0.14541 1.17779,0.52845 1.58008,0.85156 0.66864,0.53705 4.48156,5.76507 4.78906,6.56641 0.14658,0.38197 -3.77074,5.43772 -5.14453,6.63867 -0.4538,0.3967 -1.18269,0.78724 -1.61914,0.86914 -0.43645,0.0819 -0.79492,0.23946 -0.79492,0.34961 0,0.11017 1.26907,0.20117 2.81836,0.20117 1.7277,0 2.8164,-0.0883 2.8164,-0.22656 10e-6,-0.12394 -0.2325,-0.22461 -0.51757,-0.22461 -0.62628,0 -1.06055,-0.39181 -1.06055,-0.95899 0,-0.41578 3.78952,-5.53975 4.11523,-5.56445 0.268,-0.0203 3.54688,5.14375 3.54688,5.58594 0,0.54658 -0.44075,0.9375 -1.05859,0.9375 -0.28507,0 -0.51758,0.10067 -0.51758,0.22461 0,0.14025 1.27561,0.22656 3.3789,0.22656 2.10328,0 3.38086,-0.0863 3.38086,-0.22656 0,-0.12394 -0.24652,-0.22461 -0.54687,-0.22461 -0.30035,0 -0.85745,-0.26159 -1.23828,-0.58203 -0.73956,-0.6223 -5.42578,-7.3247 -5.42578,-7.75977 0,-0.31448 3.51537,-4.81221 4.45898,-5.70508 0.37057,-0.35065 1.06421,-0.77658 1.54297,-0.94726 0.81905,-0.29152 0.70517,-0.30866 -1.94531,-0.28906 -1.5493,0.0114 -2.56377,0.066 -2.25391,0.12304 0.76756,0.14112 1.12721,0.47573 1.12695,1.04688 -1.9e-4,0.44086 -3.26305,4.87814 -3.58007,4.86914 -0.14812,-0.004 -1.22021,-1.58075 -2.42969,-3.57422 -0.84934,-1.39987 -0.74916,-1.91298 0.4375,-2.25586 0.52279,-0.15103 -0.31904,-0.21089 -2.99219,-0.21289 z m -163.83008,0.0117 c -1.54929,0.002 -2.61508,0.0472 -2.36719,0.0996 0.24788,0.0524 0.66651,0.13971 0.92969,0.19531 0.90743,0.1916 1.03547,1.07817 0.94727,6.57227 -0.0678,4.22029 -0.14876,5.26138 -0.45117,5.8164 -0.86917,1.59526 -2.40956,2.39453 -4.61719,2.39453 -1.80341,0 -2.68341,-0.46857 -3.45508,-1.84179 -0.54901,-0.97693 -0.56587,-1.13716 -0.63867,-6.26367 -0.0797,-5.61224 0.0433,-6.48687 0.94726,-6.67774 0.26318,-0.0556 0.68181,-0.14291 0.92969,-0.19531 0.24789,-0.0525 -1.11988,-0.09 -3.04101,-0.084 -1.92113,0.006 -3.12352,0.0499 -2.67188,0.0977 1.60492,0.16998 1.64307,0.31744 1.76953,6.67773 0.10992,5.5282 0.12619,5.69232 0.67578,6.66211 0.64394,1.13628 1.33642,1.71003 2.60547,2.16211 2.23883,0.79755 6.05832,0.18299 7.36914,-1.18554 1.24594,-1.30079 1.37348,-1.96319 1.50782,-7.87891 0.13683,-6.02625 0.1351,-6.02439 1.61914,-6.375 0.50279,-0.11875 -0.18846,-0.17778 -2.0586,-0.17578 z m 62.42188,0.004 c -2.04116,10e-6 -3.14709,0.0674 -2.66016,0.16211 1.59684,0.31053 1.5332,-0.003 1.5332,7.51368 0,7.55379 -0.009,7.5957 -1.5,7.5957 -0.41459,0 -0.7539,0.10067 -0.7539,0.22461 0,0.14025 1.27757,0.22656 3.38086,0.22656 2.10328,0 3.38086,-0.0863 3.38086,-0.22656 0,-0.12394 -0.28271,-0.22461 -0.62696,-0.22461 -0.34426,0 -0.84953,-0.15862 -1.125,-0.35156 -0.47954,-0.3359 -0.50195,-0.49433 -0.50195,-3.71875 v -3.36719 h 3.71875 3.71875 v 3.21875 c 0,3.72266 -0.17483,4.21875 -1.47852,4.21875 -0.42677,0 -0.77539,0.10067 -0.77539,0.22461 0,0.14025 1.27757,0.22656 3.38086,0.22656 2.10329,0 3.37891,-0.0863 3.37891,-0.22656 0,-0.12394 -0.32178,-0.22461 -0.71484,-0.22461 -0.39306,0 -0.9003,-0.16792 -1.12696,-0.37305 -0.38191,-0.34564 -0.41211,-0.87167 -0.41211,-7.18359 0,-7.56044 -0.0642,-7.2421 1.53321,-7.55274 0.48692,-0.0947 -0.61706,-0.16211 -2.65821,-0.16211 -2.04116,10e-6 -3.14707,0.0674 -2.66015,0.16211 1.49394,0.29052 1.5332,0.38806 1.5332,3.86915 v 3.12695 h -3.71875 -3.71875 v -3.12695 c 0,-3.48109 0.0393,-3.57863 1.5332,-3.86915 0.48693,-0.0947 -0.619,-0.16211 -2.66015,-0.16211 z m 93.18359,0.004 c -1.85916,0.002 -3.07691,0.066 -2.70508,0.14258 0.37183,0.0767 0.87907,0.25805 1.12696,0.4043 0.43501,0.25666 0.45117,0.50547 0.45117,7.12109 0,7.57198 -0.004,7.59961 -1.37891,7.59961 -0.41863,0 -0.76172,0.10067 -0.76172,0.22461 0,0.13985 1.23941,0.22656 3.26758,0.22656 2.02817,0 3.26758,-0.0867 3.26758,-0.22656 0,-0.12394 -0.30395,-0.22461 -0.67578,-0.22461 -0.37559,0 -0.87657,-0.20078 -1.12696,-0.45117 -0.42911,-0.42912 -0.45117,-0.7508 -0.45117,-6.72656 0,-6.64919 0.1221,-7.61913 0.98047,-7.80079 0.26648,-0.0564 0.68767,-0.14486 0.93555,-0.19726 0.24789,-0.0524 -1.07054,-0.0938 -2.92969,-0.0918 z m -147.49219,0.0176 c -2.65877,-0.0225 -4.25663,0.0343 -3.76367,0.13477 0.47109,0.096 0.97832,0.29686 1.12695,0.44531 0.19496,0.19473 0.28844,2.14711 0.33594,7.00976 0.0637,6.53123 0.0513,6.75334 -0.39453,7.19922 -0.25878,0.25879 -0.75651,0.46094 -1.13672,0.46094 -0.37183,0 -0.67578,0.10067 -0.67578,0.22461 0,0.13985 1.23941,0.22656 3.26758,0.22656 2.02817,0 3.26758,-0.0867 3.26758,-0.22656 0,-0.12394 -0.34309,-0.22461 -0.76172,-0.22461 -1.23036,0 -1.36973,-0.37133 -1.45703,-3.86523 l -0.0781,-3.1211 h 0.99219 0.99219 l 2.67578,3.71875 2.67383,3.71875 h 1.98828 c 2.02327,0 2.63231,-0.2812 1.19531,-0.55078 -0.43645,-0.0819 -1.14501,-0.45712 -1.57422,-0.83398 -0.70901,-0.62252 -4.95765,-6.26819 -4.79883,-6.37696 0.037,-0.0253 0.54401,-0.2235 1.12696,-0.43945 3.28971,-1.21865 3.57838,-5.49346 0.47461,-7.03516 -0.74789,-0.37154 -1.44873,-0.43074 -5.47657,-0.46484 z m 16.44922,0.01 c -2.78873,-0.0155 -4.69143,0.0165 -4.22851,0.0703 1.50822,0.17546 1.52539,0.25758 1.52539,7.62109 0,7.37279 -0.0355,7.54883 -1.47852,7.54883 -0.43179,0 -0.77539,0.11447 -0.77539,0.25781 0,0.36586 9.92768,0.10305 11.14258,-0.29492 1.20831,-0.39582 2.49273,-1.67076 2.83398,-2.81445 0.3693,-1.2377 0.12938,-2.38746 -0.6914,-3.32227 -0.60098,-0.68448 -1.03198,-0.9355 -2.32813,-1.35742 -0.34476,-0.11222 -0.23985,-0.23289 0.56446,-0.65039 1.30278,-0.67624 2.11406,-2.19134 1.88867,-3.52539 -0.21901,-1.2963 -0.96398,-2.26219 -2.25586,-2.92578 -1.10557,-0.56785 -1.2222,-0.57973 -6.19727,-0.60742 z m 57.01953,0 c -2.91562,-0.0162 -4.93015,0.0145 -4.47851,0.0684 1.6188,0.19298 1.64751,0.3109 1.72851,6.80079 0.0977,7.82669 -0.0102,8.37109 -1.67773,8.37109 -0.46658,0 -0.73114,0.0908 -0.64844,0.22461 0.18016,0.2917 5.92038,0.29288 8.45117,0.002 3.45044,-0.39666 5.99606,-2.1662 6.91797,-4.80859 0.60052,-1.72121 0.54917,-4.87034 -0.10351,-6.3086 -0.80908,-1.7829 -1.74521,-2.77258 -3.38477,-3.58007 l -1.50391,-0.74024 z m -37.75195,0.25976 c 3.40466,0.0161 5.16858,2.68097 5.14258,7.76953 -0.0184,3.6066 -1.04485,5.85199 -3.10352,6.78711 -2.10658,0.95689 -4.61516,0.27062 -5.79492,-1.58594 -1.07502,-1.69173 -1.37125,-3.09498 -1.28125,-6.07617 0.0736,-2.4386 0.13443,-2.7377 0.82617,-4.14258 0.97406,-1.97825 2.17074,-2.76195 4.21094,-2.75195 z m -17.64648,0.20252 c 1.01222,0.0376 2.12564,0.29825 2.91992,0.70898 1.99693,1.03266 2.07758,4.4015 0.13086,5.43164 -0.49202,0.26036 -1.44198,0.41617 -2.92578,0.48047 l -2.19532,0.0957 v -3.26562 -3.26367 l 1.10742,-0.14649 c 0.29926,-0.0397 0.62549,-0.0535 0.9629,-0.041 z m 79.86914,0.1289 c 2.24941,0 3.5621,1.23699 3.57422,3.3711 0.009,1.49917 -0.56398,2.45001 -1.84766,3.0664 -0.46723,0.22435 -1.43382,0.45216 -2.14649,0.50586 l -1.29492,0.0977 v -3.38477 c 0,-3.7918 -0.0643,-3.65625 1.71485,-3.65625 z m -96.25,0.004 c 3.5872,-0.0109 4.8322,4.56772 1.73437,6.37695 -0.42613,0.24888 -1.35997,0.48378 -2.19531,0.55078 l -1.45508,0.11719 v -3.38477 c 0,-3.81691 -0.0851,-3.65415 1.91602,-3.66015 z m 73.35937,0.006 c 1.22592,0.006 2.43365,0.28952 3.39453,0.8125 1.30005,0.70757 1.98547,1.50018 2.71485,3.13476 0.65605,1.47023 0.71688,4.41295 0.125,6.10938 -0.51331,1.47124 -1.87852,3.03601 -3.18555,3.65039 -1.01332,0.47631 -3.00326,0.77119 -3.8457,0.57031 -0.24789,-0.0591 -0.67816,-0.15534 -0.95704,-0.21484 l -0.50781,-0.10938 v -6.85351 -6.85547 l 1.03907,-0.15625 c 0.40407,-0.0606 0.81401,-0.09 1.22265,-0.0879 z m -59.0625,7.14062 2.0918,0.10938 c 3.06734,0.16111 4.34301,0.91408 4.91211,2.89844 0.41533,1.44817 -0.53393,3.20813 -2.03321,3.77148 -0.83691,0.31443 -2.68113,0.45747 -3.83203,0.29687 l -1.01367,-0.14257 -0.0625,-3.4668 z"
         id="path4525"
         inkscape:connector-curvature="0" />
    </g>
    <path
       inkscape:connector-curvature="0"
       id="path4563"
       d="M 20,198.66666 H 490"
       style="fill:#666666;stroke:#666666;stroke-width:1px;stroke-linecap:butt;stroke-linejoin:miter;stroke-opacity:1" />
    <path
       inkscape:connector-curvature="0"
       id="path4565"
       d="M 20,228.66666 H 490"
       style="fill:#666666;stroke:#666666;stroke-width:1px;stroke-linecap:butt;stroke-linejoin:miter;stroke-opacity:1" />
    <path
       style="opacity:1;fill:url(#linearGradient4590);fill-opacity:1;stroke:#ffffff;stroke-width:0.91022617;stroke-miterlimit:4;stroke-dasharray:none"
       d="m 311.56258,178.02699 v -1.93297 l 1.85006,-0.20931 c 2.78424,-0.315 6.65106,-1.53307 9.6117,-3.02775 6.66765,-3.36616 12.05071,-8.43474 19.68507,-18.53504 3.5473,-4.69311 34.794,-48.83212 34.794,-49.14993 0,-0.44245 -26.44467,-43.486561 -30.29185,-49.306198 -7.73591,-11.702101 -13.66749,-17.916717 -20.02343,-20.978866 -2.8044,-1.351099 -7.30346,-2.567443 -10.60224,-2.866371 l -2.29263,-0.207753 v -1.930307 -1.930308 h 31.5545 31.55451 v 1.972157 1.972157 h -1.33865 c -1.9257,0 -5.7032,0.776009 -7.38267,1.51662 -1.78844,0.788664 -3.90969,2.792566 -4.65749,4.399851 -1.2067,2.593581 -0.46163,6.332282 2.29767,11.529532 2.09726,3.950273 22.75076,38.17765 23.10094,38.28332 0.2333,0.0704 7.6813,-10.351478 23.79512,-33.29617 2.42667,-3.455359 4.85877,-7.162433 5.40466,-8.237943 2.0445,-4.027982 1.76717,-9.19107 -0.60983,-11.353188 -1.76429,-1.604797 -6.50433,-2.833887 -10.95154,-2.83973 l -1.7446,-0.0023 v -1.972158 -1.972156 h 24.2727 24.2727 v 1.972156 1.972158 l -1.13779,0.004 c -1.73343,0.0061 -6.37536,1.045521 -8.45071,1.892327 -3.79513,1.548537 -9.16977,5.824892 -13.10246,10.425033 -3.48723,4.079076 -8.39563,10.838463 -22.95183,31.60712 -8.32374,11.876231 -13.81558,19.981951 -13.71532,20.243221 0.3189,0.83104 31.4477,52.330786 35.62264,58.934386 2.30781,3.65031 4.9829,7.68247 5.94466,8.96034 3.85899,5.12739 7.80834,8.70197 11.45658,10.36942 1.68454,0.76993 6.13092,1.68331 8.19442,1.68331 h 1.17389 v 1.97215 1.97216 h -29.27894 -29.27895 v -1.92672 -1.92672 l 2.6819,-0.19037 c 3.17875,-0.22564 6.03376,-1.05064 7.49634,-2.16621 1.49747,-1.14217 2.76891,-3.53801 3.18421,-6.00014 0.39714,-2.35459 0.23938,-3.61318 -0.70796,-5.64798 -1.24258,-2.6689 -28.52305,-48.67763 -28.92974,-48.79023 -0.46636,-0.12912 -32.63473,45.89947 -34.03768,48.70331 -1.29049,2.57911 -1.31052,2.66635 -1.19865,5.22306 0.0944,2.15721 0.2545,2.8403 0.93992,4.00989 1.56761,2.67493 4.11039,3.95295 9.03711,4.54212 l 3.00165,0.35895 v 1.90552 1.90552 h -24.121 -24.12099 V 178.027 Z"
       id="path4580"
       inkscape:connector-curvature="0" />
    <path
       style="fill:url(#linearGradient4668);fill-opacity:1;stroke:url(#linearGradient4670);stroke-width:0.8975842"
       d="M 69.991176,152.559 C 59.617406,148.29416 55.066866,141.02757 54.37801,127.62694 l -0.403726,-7.85386 h 9.085632 9.08564 v 2.27279 c 0,1.25003 0.57167,3.64099 1.27038,5.31326 3.40846,8.15758 13.09096,5.65387 13.09096,-3.38508 0,-5.33046 -1.75173,-7.31138 -11.67784,-13.20574 -18.0672,-10.72873 -24.021387,-23.348436 -18.92417,-40.109167 2.12884,-7.000053 4.41645,-10.722337 9.42948,-15.343191 7.04681,-6.495518 17.09032,-8.118452 25.66045,-4.146479 9.789484,4.537097 14.537674,11.786966 15.802004,24.127555 l 0.60242,5.879936 h -9.879194 -9.8792 l -0.48628,-3.62554 c -0.61459,-4.582131 -1.99573,-6.247888 -5.18035,-6.247888 -3.92562,0 -6.52866,3.905181 -5.96506,8.949018 0.51717,4.62828 1.26234,5.36061 13.91257,13.67285 9.79948,6.439066 14.757694,11.697656 16.332364,17.321826 1.65499,5.91103 0.73538,20.20075 -1.71221,26.60577 -3.60709,9.43931 -14.735114,16.95638 -25.024934,16.90455 -2.37755,-0.0119 -6.549,-0.97474 -9.52577,-2.19855 z m 61.843724,1.01805 c -5.57383,-1.84622 -8.69166,-3.74148 -12.29795,-7.47566 -7.66552,-7.93734 -8.79527,-15.5402 -8.79527,-59.189286 V 52.45427 h 10.32221 10.32222 l 0.0197,34.332594 c 0.018,31.472496 0.15815,34.637386 1.68145,37.991326 3.33195,7.33619 11.21741,7.33619 14.54937,0 1.52329,-3.35394 1.66337,-6.51883 1.68144,-37.991326 l 0.0197,-34.332594 h 10.32222 10.32222 l -0.0118,34.781384 c -0.0103,30.476806 -0.22002,35.790296 -1.69427,42.933506 -0.92537,4.48367 -2.30046,9.33062 -3.05577,10.77101 -2.12679,4.05582 -7.79519,9.05963 -12.74106,11.24722 -5.47676,2.42242 -15.49126,3.09653 -20.64443,1.38966 z m 41.73767,-50.04027 V 52.294708 l 18.17608,0.345023 c 20.37859,0.386831 25.03518,1.463698 30.8969,7.145096 6.03674,5.851045 9.49675,21.461907 7.5604,34.111007 -2.08801,13.639716 -6.01195,20.362446 -13.77518,23.600446 -4.2363,1.76693 -15.0658,4.07196 -19.13091,4.07196 h -3.08285 v 16.60531 16.60531 h -10.32223 -10.32221 z m 33.27965,-8.827006 c 2.33143,-2.33142 2.62371,-3.23906 2.62371,-8.14731 0,-4.90824 -0.29228,-5.81588 -2.62371,-8.147299 -2.27261,-2.27261 -3.29356,-2.623707 -7.62946,-2.623707 h -5.00575 v 10.771006 10.77101 h 5.00575 c 4.3359,0 5.35685,-0.35109 7.62946,-2.6237 z m 26.85848,8.906786 V 52.45427 h 22.43961 22.43961 v 11.668594 11.668594 h -11.6686 -11.6686 v 7.180676 7.18067 h 11.6686 11.6686 v 12.117386 12.11738 h -11.6686 -11.6686 v 7.62947 7.62946 h 11.6686 11.6686 v 12.56618 12.56618 H 256.15031 233.7107 Z m 48.46955,-0.0784 V 52.297393 l 18.62487,0.374637 c 20.8422,0.41924 25.73763,1.397571 31.26135,6.247451 1.7526,1.538801 4.2626,4.853743 5.5778,7.36654 2.21413,4.230322 2.41537,5.547424 2.7169,17.782173 0.29055,11.78901 0.10969,13.86939 -1.67772,19.298056 -1.58334,4.80886 -2.96491,7.02558 -6.5893,10.57253 -2.52224,2.46835 -5.34026,4.90214 -6.26227,5.40839 -1.55253,0.85247 -1.07178,2.12825 6.50748,17.26906 4.50113,8.99171 8.18386,16.75673 8.18386,17.2556 0,0.56167 -4.19111,0.90703 -11.00744,0.90703 h -11.00743 l -7.79046,-15.48333 -7.79047,-15.48332 -0.0514,15.48332 -0.0514,15.48333 H 292.5024 282.18018 Z m 32.82296,-1.23563 c 3.83388,-1.6019 5.77316,-5.683136 5.77316,-12.149686 0,-9.50964 -3.94565,-13.463763 -13.43493,-13.463763 h -4.51675 V 90.152844 103.6166 h 4.51675 c 2.48421,0 5.93201,-0.59133 7.66177,-1.31407 z"
       id="path4604"
       inkscape:connector-curvature="0" />
    <path
       style="opacity:1;fill:url(#linearGradient4672);fill-opacity:1;stroke:url(#linearGradient4674);stroke-width:0.476;stroke-miterlimit:4;stroke-dasharray:none"
       d="m 209.49218,204.56314 c -1.64966,-0.008 -2.09221,0.0774 -3.1914,0.61718 -3.97719,1.95323 -5.63295,6.50262 -3.97657,10.92969 0.6364,1.70093 2.40821,3.51986 4.125,4.23438 1.14413,0.4757 1.63065,0.55232 3.16407,0.48632 2.16734,-0.0934 3.56497,-0.68412 4.98632,-2.10546 4.01799,-4.01799 2.99334,-10.94154 -2.00195,-13.53516 -1.01849,-0.52882 -1.46714,-0.61895 -3.10547,-0.62695 z m -72.11328,0.32812 0.0176,1.74609 c 0.0155,1.57957 0.042,1.68176 0.28125,1.07032 0.1455,-0.37184 0.37308,-0.85814 0.50586,-1.08203 0.34218,-0.57696 1.79283,-1.03723 3.30859,-1.04883 l 1.29492,-0.01 v 6.82422 c 0,7.67623 -0.027,7.82422 -1.47656,7.82422 -0.42677,0 -0.77539,0.10067 -0.77539,0.22461 0,0.13985 1.23941,0.22656 3.26758,0.22656 2.02817,0 3.26758,-0.0867 3.26758,-0.22656 0,-0.12394 -0.35181,-0.22461 -0.78125,-0.22461 -1.32575,0 -1.35938,-0.1969 -1.35938,-7.77539 v -6.75977 l 1.46484,-0.0605 c 1.93306,-0.0805 2.86705,0.38088 3.53907,1.75 l 0.49804,1.01367 0.01,-1.7461 0.008,-1.74609 h -6.53515 z m 156.39453,0 -6.14062,0.0254 c -3.47485,0.0147 -5.75748,0.10097 -5.25782,0.19727 1.49119,0.28738 1.48243,0.24448 1.48243,7.5957 0,6.30435 -0.019,6.62449 -0.44922,7.05469 -0.25039,0.25039 -0.75138,0.45117 -1.12696,0.45117 -0.37183,0 -0.67578,0.10067 -0.67578,0.22461 0,0.14465 2.1707,0.22656 6.06446,0.22656 h 6.0664 l 0.60547,-1.81836 c 0.61986,-1.8614 0.63424,-2.57009 0.0273,-1.39648 -0.18703,0.36168 -0.75366,1.02889 -1.25781,1.48437 l -0.91601,0.82813 h -2.93555 -2.93359 l -0.22657,-0.59375 c -0.12433,-0.32707 -0.19856,-1.9238 -0.16406,-3.54883 l 0.0645,-2.95508 2.36914,0.0195 c 1.34455,0.0117 2.58442,0.13487 2.86524,0.28516 0.28869,0.1545 0.59735,0.64069 0.73828,1.16406 0.13293,0.49367 0.2885,0.89649 0.3457,0.89649 0.0572,0 0.0969,-1.24146 0.0879,-2.75977 -0.0153,-2.65687 -0.029,-2.72756 -0.33789,-1.88477 -0.49699,1.35598 -0.78948,1.47443 -3.64648,1.48243 l -2.53516,0.008 v -3.1543 -3.15625 l 2.87305,0.004 c 1.58028,0.002 3.11419,0.0678 3.4082,0.14648 0.36308,0.0972 0.70152,0.51023 1.05664,1.29102 l 0.52344,1.15039 0.0137,-1.63281 z m 6.90039,0 -2.26758,0.0234 c -1.70078,0.0173 -2.07016,0.0688 -1.48242,0.20703 1.57157,0.36974 1.58408,0.42422 1.58008,7.51367 -0.004,7.19116 -0.0492,7.42362 -1.41211,7.53711 -0.46194,0.0385 -0.83984,0.16479 -0.83984,0.28125 0,0.12035 1.16831,0.21289 2.70507,0.21289 1.65259,0 2.70508,-0.0888 2.70508,-0.22656 0,-0.12394 -0.3542,-0.22461 -0.78515,-0.22461 -1.43335,0 -1.48422,-0.25792 -1.41602,-7.00781 l 0.0586,-5.94922 3.04297,6.60351 c 1.67324,3.63207 3.13058,6.60348 3.23829,6.60352 0.1077,4e-5 1.50915,-2.87074 3.11523,-6.37891 1.60608,-3.50817 3.01453,-6.47404 3.12891,-6.59179 0.12725,-0.13095 0.20707,2.05578 0.20507,5.63281 -0.004,6.65518 -0.0591,6.93241 -1.41015,7.04492 -0.46194,0.0385 -0.83985,0.16479 -0.83985,0.28125 0,0.12235 1.37936,0.21289 3.26758,0.21289 1.88822,0 3.26758,-0.0905 3.26758,-0.21289 0,-0.11646 -0.3779,-0.24275 -0.83984,-0.28125 -1.35751,-0.11304 -1.40616,-0.36782 -1.41016,-7.30469 -0.004,-6.47573 0.12091,-7.44977 0.97656,-7.63086 0.26649,-0.0564 0.68766,-0.14486 0.93555,-0.19726 0.24789,-0.0524 -0.56768,-0.10865 -1.81055,-0.12305 l -2.25976,-0.0254 -2.80274,6.19336 c -1.54158,3.40654 -2.86736,6.1203 -2.94726,6.0293 -0.0799,-0.091 -1.39541,-2.87982 -2.92383,-6.19532 z m -31.125,0.0273 c -2.54266,0.0146 -3.9328,0.0926 -3.42187,0.19141 1.6582,0.32081 1.61914,0.13599 1.61914,7.54102 0,6.18994 -0.0281,6.64604 -0.42969,7.08984 -0.27344,0.30215 -0.70344,0.47461 -1.18359,0.47461 -0.41459,0 -0.75391,0.10067 -0.75391,0.22461 0,0.14025 1.27757,0.22656 3.38086,0.22656 2.10329,0 3.38086,-0.0863 3.38086,-0.22656 0,-0.12394 -0.3506,-0.22461 -0.77734,-0.22461 -1.28767,0 -1.47657,-0.516 -1.47657,-4.00781 v -3.00391 l 0.95117,0.0684 c 0.94884,0.0692 0.95502,0.0764 3.56446,3.67578 l 2.61328,3.60547 2.06836,0.0645 c 1.32087,0.0414 2.07031,-0.0187 2.07031,-0.16797 0,-0.1286 -0.20615,-0.23437 -0.45898,-0.23437 -0.87089,0 -2.16923,-0.87269 -3.07422,-2.06836 -1.74862,-2.31025 -3.48014,-4.72624 -3.58594,-5.00195 -0.0653,-0.17008 0.3851,-0.48115 1.15625,-0.80078 1.98176,-0.82139 2.97711,-2.75548 2.36914,-4.59766 -0.33404,-1.01214 -1.75128,-2.30287 -2.86914,-2.61328 -0.48486,-0.13463 -2.73145,-0.22875 -5.14258,-0.21485 z m 59.83008,0.01 c -3.17457,-0.003 -3.59282,0.036 -2.86719,0.26172 0.46746,0.14541 1.17779,0.52845 1.58008,0.85156 0.66864,0.53705 4.48156,5.76507 4.78906,6.56641 0.14658,0.38197 -3.77074,5.43772 -5.14453,6.63867 -0.4538,0.3967 -1.18269,0.78724 -1.61914,0.86914 -0.43645,0.0819 -0.79492,0.23946 -0.79492,0.34961 0,0.11017 1.26907,0.20117 2.81836,0.20117 1.7277,0 2.8164,-0.0883 2.8164,-0.22656 10e-6,-0.12394 -0.2325,-0.22461 -0.51757,-0.22461 -0.62628,0 -1.06055,-0.39181 -1.06055,-0.95899 0,-0.41578 3.78952,-5.53975 4.11523,-5.56445 0.268,-0.0203 3.54688,5.14375 3.54688,5.58594 0,0.54658 -0.44075,0.9375 -1.05859,0.9375 -0.28507,0 -0.51758,0.10067 -0.51758,0.22461 0,0.14025 1.27561,0.22656 3.3789,0.22656 2.10328,0 3.38086,-0.0863 3.38086,-0.22656 0,-0.12394 -0.24652,-0.22461 -0.54687,-0.22461 -0.30035,0 -0.85745,-0.26159 -1.23828,-0.58203 -0.73956,-0.6223 -5.42578,-7.3247 -5.42578,-7.75977 0,-0.31448 3.51537,-4.81221 4.45898,-5.70508 0.37057,-0.35065 1.06421,-0.77658 1.54297,-0.94726 0.81905,-0.29152 0.70517,-0.30866 -1.94531,-0.28906 -1.5493,0.0114 -2.56377,0.066 -2.25391,0.12304 0.76756,0.14112 1.12721,0.47573 1.12695,1.04688 -1.9e-4,0.44086 -3.26305,4.87814 -3.58007,4.86914 -0.14812,-0.004 -1.22021,-1.58075 -2.42969,-3.57422 -0.84934,-1.39987 -0.74916,-1.91298 0.4375,-2.25586 0.52279,-0.15103 -0.31904,-0.21089 -2.99219,-0.21289 z m -163.83008,0.0117 c -1.54929,0.002 -2.61508,0.0472 -2.36719,0.0996 0.24788,0.0524 0.66651,0.13971 0.92969,0.19531 0.90743,0.1916 1.03547,1.07817 0.94727,6.57227 -0.0678,4.22029 -0.14876,5.26138 -0.45117,5.8164 -0.86917,1.59526 -2.40956,2.39453 -4.61719,2.39453 -1.80341,0 -2.68341,-0.46857 -3.45508,-1.84179 -0.54901,-0.97693 -0.56587,-1.13716 -0.63867,-6.26367 -0.0797,-5.61224 0.0433,-6.48687 0.94726,-6.67774 0.26318,-0.0556 0.68181,-0.14291 0.92969,-0.19531 0.24789,-0.0525 -1.11988,-0.09 -3.04101,-0.084 -1.92113,0.006 -3.12352,0.0499 -2.67188,0.0977 1.60492,0.16998 1.64307,0.31744 1.76953,6.67773 0.10992,5.5282 0.12619,5.69232 0.67578,6.66211 0.64394,1.13628 1.33642,1.71003 2.60547,2.16211 2.23883,0.79755 6.05832,0.18299 7.36914,-1.18554 1.24594,-1.30079 1.37348,-1.96319 1.50782,-7.87891 0.13683,-6.02625 0.1351,-6.02439 1.61914,-6.375 0.50279,-0.11875 -0.18846,-0.17778 -2.0586,-0.17578 z m 62.42188,0.004 c -2.04116,10e-6 -3.14709,0.0674 -2.66016,0.16211 1.59684,0.31053 1.5332,-0.003 1.5332,7.51368 0,7.55379 -0.009,7.5957 -1.5,7.5957 -0.41459,0 -0.7539,0.10067 -0.7539,0.22461 0,0.14025 1.27757,0.22656 3.38086,0.22656 2.10328,0 3.38086,-0.0863 3.38086,-0.22656 0,-0.12394 -0.28271,-0.22461 -0.62696,-0.22461 -0.34426,0 -0.84953,-0.15862 -1.125,-0.35156 -0.47954,-0.3359 -0.50195,-0.49433 -0.50195,-3.71875 v -3.36719 h 3.71875 3.71875 v 3.21875 c 0,3.72266 -0.17483,4.21875 -1.47852,4.21875 -0.42677,0 -0.77539,0.10067 -0.77539,0.22461 0,0.14025 1.27757,0.22656 3.38086,0.22656 2.10329,0 3.37891,-0.0863 3.37891,-0.22656 0,-0.12394 -0.32178,-0.22461 -0.71484,-0.22461 -0.39306,0 -0.9003,-0.16792 -1.12696,-0.37305 -0.38191,-0.34564 -0.41211,-0.87167 -0.41211,-7.18359 0,-7.56044 -0.0642,-7.2421 1.53321,-7.55274 0.48692,-0.0947 -0.61706,-0.16211 -2.65821,-0.16211 -2.04116,10e-6 -3.14707,0.0674 -2.66015,0.16211 1.49394,0.29052 1.5332,0.38806 1.5332,3.86915 v 3.12695 h -3.71875 -3.71875 v -3.12695 c 0,-3.48109 0.0393,-3.57863 1.5332,-3.86915 0.48693,-0.0947 -0.619,-0.16211 -2.66015,-0.16211 z m 93.18359,0.004 c -1.85916,0.002 -3.07691,0.066 -2.70508,0.14258 0.37183,0.0767 0.87907,0.25805 1.12696,0.4043 0.43501,0.25666 0.45117,0.50547 0.45117,7.12109 0,7.57198 -0.004,7.59961 -1.37891,7.59961 -0.41863,0 -0.76172,0.10067 -0.76172,0.22461 0,0.13985 1.23941,0.22656 3.26758,0.22656 2.02817,0 3.26758,-0.0867 3.26758,-0.22656 0,-0.12394 -0.30395,-0.22461 -0.67578,-0.22461 -0.37559,0 -0.87657,-0.20078 -1.12696,-0.45117 -0.42911,-0.42912 -0.45117,-0.7508 -0.45117,-6.72656 0,-6.64919 0.1221,-7.61913 0.98047,-7.80079 0.26648,-0.0564 0.68767,-0.14486 0.93555,-0.19726 0.24789,-0.0524 -1.07054,-0.0938 -2.92969,-0.0918 z m -147.49219,0.0176 c -2.65877,-0.0225 -4.25663,0.0343 -3.76367,0.13477 0.47109,0.096 0.97832,0.29686 1.12695,0.44531 0.19496,0.19473 0.28844,2.14711 0.33594,7.00976 0.0637,6.53123 0.0513,6.75334 -0.39453,7.19922 -0.25878,0.25879 -0.75651,0.46094 -1.13672,0.46094 -0.37183,0 -0.67578,0.10067 -0.67578,0.22461 0,0.13985 1.23941,0.22656 3.26758,0.22656 2.02817,0 3.26758,-0.0867 3.26758,-0.22656 0,-0.12394 -0.34309,-0.22461 -0.76172,-0.22461 -1.23036,0 -1.36973,-0.37133 -1.45703,-3.86523 l -0.0781,-3.1211 h 0.99219 0.99219 l 2.67578,3.71875 2.67383,3.71875 h 1.98828 c 2.02327,0 2.63231,-0.2812 1.19531,-0.55078 -0.43645,-0.0819 -1.14501,-0.45712 -1.57422,-0.83398 -0.70901,-0.62252 -4.95765,-6.26819 -4.79883,-6.37696 0.037,-0.0253 0.54401,-0.2235 1.12696,-0.43945 3.28971,-1.21865 3.57838,-5.49346 0.47461,-7.03516 -0.74789,-0.37154 -1.44873,-0.43074 -5.47657,-0.46484 z m 16.44922,0.01 c -2.78873,-0.0155 -4.69143,0.0165 -4.22851,0.0703 1.50822,0.17546 1.52539,0.25758 1.52539,7.62109 0,7.37279 -0.0355,7.54883 -1.47852,7.54883 -0.43179,0 -0.77539,0.11447 -0.77539,0.25781 0,0.36586 9.92768,0.10305 11.14258,-0.29492 1.20831,-0.39582 2.49273,-1.67076 2.83398,-2.81445 0.3693,-1.2377 0.12938,-2.38746 -0.6914,-3.32227 -0.60098,-0.68448 -1.03198,-0.9355 -2.32813,-1.35742 -0.34476,-0.11222 -0.23985,-0.23289 0.56446,-0.65039 1.30278,-0.67624 2.11406,-2.19134 1.88867,-3.52539 -0.21901,-1.2963 -0.96398,-2.26219 -2.25586,-2.92578 -1.10557,-0.56785 -1.2222,-0.57973 -6.19727,-0.60742 z m 57.01953,0 c -2.91562,-0.0162 -4.93015,0.0145 -4.47851,0.0684 1.6188,0.19298 1.64751,0.3109 1.72851,6.80079 0.0977,7.82669 -0.0102,8.37109 -1.67773,8.37109 -0.46658,0 -0.73114,0.0908 -0.64844,0.22461 0.18016,0.2917 5.92038,0.29288 8.45117,0.002 3.45044,-0.39666 5.99606,-2.1662 6.91797,-4.80859 0.60052,-1.72121 0.54917,-4.87034 -0.10351,-6.3086 -0.80908,-1.7829 -1.74521,-2.77258 -3.38477,-3.58007 l -1.50391,-0.74024 z m -37.75195,0.25976 c 3.40466,0.0161 5.16858,2.68097 5.14258,7.76953 -0.0184,3.6066 -1.04485,5.85199 -3.10352,6.78711 -2.10658,0.95689 -4.61516,0.27062 -5.79492,-1.58594 -1.07502,-1.69173 -1.37125,-3.09498 -1.28125,-6.07617 0.0736,-2.4386 0.13443,-2.7377 0.82617,-4.14258 0.97406,-1.97825 2.17074,-2.76195 4.21094,-2.75195 z m -17.64648,0.20252 c 1.01222,0.0376 2.12564,0.29825 2.91992,0.70898 1.99693,1.03266 2.07758,4.4015 0.13086,5.43164 -0.49202,0.26036 -1.44198,0.41617 -2.92578,0.48047 l -2.19532,0.0957 v -3.26562 -3.26367 l 1.10742,-0.14649 c 0.29926,-0.0397 0.62549,-0.0535 0.9629,-0.041 z m 79.86914,0.1289 c 2.24941,0 3.5621,1.23699 3.57422,3.3711 0.009,1.49917 -0.56398,2.45001 -1.84766,3.0664 -0.46723,0.22435 -1.43382,0.45216 -2.14649,0.50586 l -1.29492,0.0977 v -3.38477 c 0,-3.7918 -0.0643,-3.65625 1.71485,-3.65625 z m -96.25,0.004 c 3.5872,-0.0109 4.8322,4.56772 1.73437,6.37695 -0.42613,0.24888 -1.35997,0.48378 -2.19531,0.55078 l -1.45508,0.11719 v -3.38477 c 0,-3.81691 -0.0851,-3.65415 1.91602,-3.66015 z m 73.35937,0.006 c 1.22592,0.006 2.43365,0.28952 3.39453,0.8125 1.30005,0.70757 1.98547,1.50018 2.71485,3.13476 0.65605,1.47023 0.71688,4.41295 0.125,6.10938 -0.51331,1.47124 -1.87852,3.03601 -3.18555,3.65039 -1.01332,0.47631 -3.00326,0.77119 -3.8457,0.57031 -0.24789,-0.0591 -0.67816,-0.15534 -0.95704,-0.21484 l -0.50781,-0.10938 v -6.85351 -6.85547 l 1.03907,-0.15625 c 0.40407,-0.0606 0.81401,-0.09 1.22265,-0.0879 z m -59.0625,7.14062 2.0918,0.10938 c 3.06734,0.16111 4.34301,0.91408 4.91211,2.89844 0.41533,1.44817 -0.53393,3.20813 -2.03321,3.77148 -0.83691,0.31443 -2.68113,0.45747 -3.83203,0.29687 l -1.01367,-0.14257 -0.0625,-3.4668 z"
       id="path4606"
       inkscape:connector-curvature="0" />
    <path
       inkscape:connector-curvature="0"
       id="path4508"
       d="m 230.2176,64.858846 c -0.42688,0.133338 -0.82309,0.393449 -1.36675,0.833754 -2.12667,1.722456 -8.56997,11.688348 -17.48597,27.044424 -11.82644,20.368726 -13.07842,22.332676 -13.9456,21.889416 -0.76604,-0.39154 -2.63805,-4.81997 -8.82044,-20.853356 -4.31635,-11.19399 -5.53719,-13.661188 -7.38973,-14.940617 -1.41877,-0.979849 -3.01552,-0.810631 -5.53067,0.587367 -2.74382,1.5251 -3.48857,3.13921 -3.82303,8.28291 -0.16714,2.57047 -0.43713,6.33466 -0.59884,8.36524 -0.3526,4.427556 -3.14075,19.639436 -6.25467,34.121566 -2.17972,10.13735 -3.26053,18.25904 -2.73543,20.56564 0.53659,2.35709 3.18733,4.42075 5.08632,3.9602 1.88008,-0.45599 4.15911,-2.7836 4.62063,-4.72009 0.21855,-0.91705 0.64251,-3.76216 0.94242,-6.32352 0.41677,-3.55933 5.67403,-34.88605 7.08201,-42.20147 0.22266,-1.15681 0.24573,-1.14399 0.95311,0.51017 0.39888,0.93275 2.29821,5.90946 4.2206,11.06023 1.92241,5.15075 4.15358,10.5186 4.9587,11.92739 4.80094,8.40067 9.78627,4.21714 22.98544,-19.28323 5.77898,-10.289136 12.5005,-21.354976 13.05058,-21.485206 0.15225,-0.036 -0.059,3.63065 -0.46931,8.14817 -1.35587,14.928696 -2.24421,27.020416 -2.36723,32.198506 -0.2254,9.48799 0.93296,15.53151 3.16413,16.50225 1.84022,0.80067 5.02251,-1.06485 5.96011,-3.49299 0.8794,-2.27738 1.27235,-6.31469 1.08912,-11.18126 -0.0976,-2.59177 -0.11058,-6.57169 -0.0297,-8.84431 0.23208,-6.52251 2.19289,-32.822486 3.05692,-41.00125 0.43173,-4.086786 0.66949,-7.940716 0.52807,-8.56628 -0.31012,-1.375226 -2.96889,-2.963897 -5.32876,-3.182675 -0.66783,-0.06191 -1.12515,-0.05432 -1.55203,0.07902 z m -86.02249,21.997368 c -0.34103,0.10548 -0.67252,0.23872 -0.98409,0.40174 -2.80411,1.46712 -4.60149,7.07132 -4.96926,15.494476 -0.10437,2.39055 -0.75387,10.18611 -1.44204,17.32205 -0.68818,7.13591 -1.30989,16.14635 -1.38305,20.02372 -0.0732,3.87737 -0.2438,8.79245 -0.37837,10.92273 -0.36764,5.82007 0.55199,8.45757 3.17717,9.11356 1.94667,0.48645 4.32846,-0.30901 5.5946,-1.87006 1.62459,-2.00304 2.26057,-5.5736 2.21025,-12.39248 -0.0243,-3.28231 0.28393,-12.42272 0.68451,-20.31159 0.66635,-13.12285 1.16784,-18.97067 2.7401,-31.929676 0.30457,-2.51036 0.47449,-4.9138 0.37743,-5.34013 -0.34975,-1.53634 -3.24003,-2.17278 -5.62725,-1.43434 z m -37.51609,11.36254 c -3.31103,0.72868 -6.657,1.782046 -9.552634,3.111296 -10.69001,4.90732 -19.75027,12.88569 -21.85646,19.24746 -0.73467,2.21907 -0.72634,2.71719 0.0916,6.31024 1.07244,4.71098 2.09559,6.18203 5.99182,8.61395 3.58557,2.23804 8.43143,3.32503 20.080824,4.50315 12.76302,1.29073 15.43697,2.09161 16.7359,5.01452 0.53634,1.20687 0.43904,1.57375 -1.01347,3.85623 -3.91144,6.14631 -17.01385,14.22606 -28.316224,17.46081 -4.55399,1.30336 -4.7377,1.31882 -9.85078,0.7959 -2.8654,-0.29305 -5.54924,-0.35235 -5.9634,-0.13036 -0.78066,0.41843 -1.89063,4.65921 -1.58294,6.04545 0.28725,1.29208 1.32977,2.21017 3.30652,2.91191 2.0989,0.74509 6.61248,1.28865 9.60479,1.15779 3.134,-0.13703 9.57778,-2.14954 15.0873,-4.71211 12.674404,-5.89504 22.612244,-13.67348 26.520464,-20.75983 2.2814,-4.13662 2.70196,-6.68455 1.79766,-10.86633 -1.55499,-7.19112 -4.85895,-8.84689 -20.97347,-10.5119 -13.483724,-1.39318 -20.634714,-3.75835 -21.389884,-7.07564 -1.35403,-5.94785 12.97366,-15.06169 24.404904,-15.52425 1.31236,-0.0531 2.49455,-0.0278 2.62769,0.0567 0.13315,0.0847 -0.19861,1.33283 -0.73644,2.77423 -1.07252,2.87435 -1.44646,5.79529 -0.85612,6.68571 1.24856,1.88322 6.84662,-2.31957 10.09427,-7.57791 3.03056,-4.90687 3.72827,-8.85125 1.93524,-10.938146 -1.7874,-2.08033 -8.90291,-2.05207 -16.18717,-0.44896 z M 260.32751,62.866946 c -1.49126,0.269688 -2.26237,0.692254 -3.26291,1.792866 -1.6593,1.825252 -2.76031,4.596882 -2.62707,6.614454 0.0898,1.359508 0.3669,1.751889 2.09161,2.975867 l 1.98523,1.409732 -0.99702,6.903509 c -1.09619,7.58517 -2.57647,22.500246 -3.17191,31.951456 -0.65657,10.4217 1.37312,15.40459 6.27905,15.4116 0.80395,6.7e-4 1.73216,-0.12975 2.06196,-0.29002 0.32982,-0.16027 1.51659,-0.6438 2.63958,-1.07429 1.12298,-0.43047 3.70963,-2.08239 5.74623,-3.67193 2.0366,-1.58952 6.54181,-4.65031 10.01141,-6.80089 11.01798,-6.8293 18.63317,-12.87138 25.24965,-20.037086 11.79453,-12.77359 14.78297,-21.911003 10.24002,-31.295821 -2.02575,-4.184772 -4.54502,-6.990483 -7.62147,-8.487116 -7.75097,-3.770694 -13.48763,-3.579195 -33.39962,1.1147 -7.3004,1.720918 -14.15108,3.288845 -15.22474,3.482969 z m 21.73892,5.625384 c 10.42096,-2.457029 13.82128,-2.759679 18.38125,-1.644173 5.37838,1.315714 7.9055,4.071037 8.09546,8.828162 0.11152,2.792764 -1.27681,6.553495 -4.47899,12.129045 -2.28333,3.97566 -2.96688,4.77884 -6.68005,7.85269 -4.00104,3.31212 -19.87195,13.483446 -26.18187,16.778856 -1.63686,0.85488 -3.49693,1.81253 -4.13316,2.12841 l -1.15651,0.57403 -0.36657,-2.76817 c -0.5362,-4.05335 -7e-5,-12.0811 1.80047,-26.929316 l 1.59688,-13.159657 1.82043,-0.776348 c 1.00159,-0.427443 6.08816,-1.78396 11.30266,-3.013529 z"
       style="opacity:1;fill:#ff00ff;fill-opacity:1;stroke:#ffffff;stroke-width:2;stroke-miterlimit:4;stroke-dasharray:none" />
    <path
       style="opacity:1;fill:url(#linearGradient4658);fill-opacity:1;stroke:#ffffff;stroke-width:2;stroke-miterlimit:4;stroke-dasharray:none"
       d="m 230.2176,64.858846 c -0.42688,0.133338 -0.82309,0.393449 -1.36675,0.833754 -2.12667,1.722456 -8.56997,11.688348 -17.48597,27.044424 -11.82644,20.368726 -13.07842,22.332676 -13.9456,21.889416 -0.76604,-0.39154 -2.63805,-4.81997 -8.82044,-20.853356 -4.31635,-11.19399 -5.53719,-13.661188 -7.38973,-14.940617 -1.41877,-0.979849 -3.01552,-0.810631 -5.53067,0.587367 -2.74382,1.5251 -3.48857,3.13921 -3.82303,8.28291 -0.16714,2.57047 -0.43713,6.33466 -0.59884,8.36524 -0.3526,4.427556 -3.14075,19.639436 -6.25467,34.121566 -2.17972,10.13735 -3.26053,18.25904 -2.73543,20.56564 0.53659,2.35709 3.18733,4.42075 5.08632,3.9602 1.88008,-0.45599 4.15911,-2.7836 4.62063,-4.72009 0.21855,-0.91705 0.64251,-3.76216 0.94242,-6.32352 0.41677,-3.55933 5.67403,-34.88605 7.08201,-42.20147 0.22266,-1.15681 0.24573,-1.14399 0.95311,0.51017 0.39888,0.93275 2.29821,5.90946 4.2206,11.06023 1.92241,5.15075 4.15358,10.5186 4.9587,11.92739 4.80094,8.40067 9.78627,4.21714 22.98544,-19.28323 5.77898,-10.289136 12.5005,-21.354976 13.05058,-21.485206 0.15225,-0.036 -0.059,3.63065 -0.46931,8.14817 -1.35587,14.928696 -2.24421,27.020416 -2.36723,32.198506 -0.2254,9.48799 0.93296,15.53151 3.16413,16.50225 1.84022,0.80067 5.02251,-1.06485 5.96011,-3.49299 0.8794,-2.27738 1.27235,-6.31469 1.08912,-11.18126 -0.0976,-2.59177 -0.11058,-6.57169 -0.0297,-8.84431 0.23208,-6.52251 2.19289,-32.822486 3.05692,-41.00125 0.43173,-4.086786 0.66949,-7.940716 0.52807,-8.56628 -0.31012,-1.375226 -2.96889,-2.963897 -5.32876,-3.182675 -0.66783,-0.06191 -1.12515,-0.05432 -1.55203,0.07902 z m -86.02249,21.997368 c -0.34103,0.10548 -0.67252,0.23872 -0.98409,0.40174 -2.80411,1.46712 -4.60149,7.07132 -4.96926,15.494476 -0.10437,2.39055 -0.75387,10.18611 -1.44204,17.32205 -0.68818,7.13591 -1.30989,16.14635 -1.38305,20.02372 -0.0732,3.87737 -0.2438,8.79245 -0.37837,10.92273 -0.36764,5.82007 0.55199,8.45757 3.17717,9.11356 1.94667,0.48645 4.32846,-0.30901 5.5946,-1.87006 1.62459,-2.00304 2.26057,-5.5736 2.21025,-12.39248 -0.0243,-3.28231 0.28393,-12.42272 0.68451,-20.31159 0.66635,-13.12285 1.16784,-18.97067 2.7401,-31.929676 0.30457,-2.51036 0.47449,-4.9138 0.37743,-5.34013 -0.34975,-1.53634 -3.24003,-2.17278 -5.62725,-1.43434 z m -37.51609,11.36254 c -3.31103,0.72868 -6.657,1.782046 -9.552634,3.111296 -10.69001,4.90732 -19.75027,12.88569 -21.85646,19.24746 -0.73467,2.21907 -0.72634,2.71719 0.0916,6.31024 1.07244,4.71098 2.09559,6.18203 5.99182,8.61395 3.58557,2.23804 8.43143,3.32503 20.080824,4.50315 12.76302,1.29073 15.43697,2.09161 16.7359,5.01452 0.53634,1.20687 0.43904,1.57375 -1.01347,3.85623 -3.91144,6.14631 -17.01385,14.22606 -28.316224,17.46081 -4.55399,1.30336 -4.7377,1.31882 -9.85078,0.7959 -2.8654,-0.29305 -5.54924,-0.35235 -5.9634,-0.13036 -0.78066,0.41843 -1.89063,4.65921 -1.58294,6.04545 0.28725,1.29208 1.32977,2.21017 3.30652,2.91191 2.0989,0.74509 6.61248,1.28865 9.60479,1.15779 3.134,-0.13703 9.57778,-2.14954 15.0873,-4.71211 12.674404,-5.89504 22.612244,-13.67348 26.520464,-20.75983 2.2814,-4.13662 2.70196,-6.68455 1.79766,-10.86633 -1.55499,-7.19112 -4.85895,-8.84689 -20.97347,-10.5119 -13.483724,-1.39318 -20.634714,-3.75835 -21.389884,-7.07564 -1.35403,-5.94785 12.97366,-15.06169 24.404904,-15.52425 1.31236,-0.0531 2.49455,-0.0278 2.62769,0.0567 0.13315,0.0847 -0.19861,1.33283 -0.73644,2.77423 -1.07252,2.87435 -1.44646,5.79529 -0.85612,6.68571 1.24856,1.88322 6.84662,-2.31957 10.09427,-7.57791 3.03056,-4.90687 3.72827,-8.85125 1.93524,-10.938146 -1.7874,-2.08033 -8.90291,-2.05207 -16.18717,-0.44896 z M 260.32751,62.866946 c -1.49126,0.269688 -2.26237,0.692254 -3.26291,1.792866 -1.6593,1.825252 -2.76031,4.596882 -2.62707,6.614454 0.0898,1.359508 0.3669,1.751889 2.09161,2.975867 l 1.98523,1.409732 -0.99702,6.903509 c -1.09619,7.58517 -2.57647,22.500246 -3.17191,31.951456 -0.65657,10.4217 1.37312,15.40459 6.27905,15.4116 0.80395,6.7e-4 1.73216,-0.12975 2.06196,-0.29002 0.32982,-0.16027 1.51659,-0.6438 2.63958,-1.07429 1.12298,-0.43047 3.70963,-2.08239 5.74623,-3.67193 2.0366,-1.58952 6.54181,-4.65031 10.01141,-6.80089 11.01798,-6.8293 18.63317,-12.87138 25.24965,-20.037086 11.79453,-12.77359 14.78297,-21.911003 10.24002,-31.295821 -2.02575,-4.184772 -4.54502,-6.990483 -7.62147,-8.487116 -7.75097,-3.770694 -13.48763,-3.579195 -33.39962,1.1147 -7.3004,1.720918 -14.15108,3.288845 -15.22474,3.482969 z m 21.73892,5.625384 c 10.42096,-2.457029 13.82128,-2.759679 18.38125,-1.644173 5.37838,1.315714 7.9055,4.071037 8.09546,8.828162 0.11152,2.792764 -1.27681,6.553495 -4.47899,12.129045 -2.28333,3.97566 -2.96688,4.77884 -6.68005,7.85269 -4.00104,3.31212 -19.87195,13.483446 -26.18187,16.778856 -1.63686,0.85488 -3.49693,1.81253 -4.13316,2.12841 l -1.15651,0.57403 -0.36657,-2.76817 c -0.5362,-4.05335 -7e-5,-12.0811 1.80047,-26.929316 l 1.59688,-13.159657 1.82043,-0.776348 c 1.00159,-0.427443 6.08816,-1.78396 11.30266,-3.013529 z"
       id="path4642"
       inkscape:connector-curvature="0" />
    <path
       inkscape:connector-curvature="0"
       id="path4713"
       d="m 311.56258,178.02699 v -1.93297 l 1.85006,-0.20931 c 2.78424,-0.315 6.65106,-1.53307 9.6117,-3.02775 6.66765,-3.36616 12.05071,-8.43474 19.68507,-18.53504 3.5473,-4.69311 34.794,-48.83212 34.794,-49.14993 0,-0.44245 -26.44467,-43.486561 -30.29185,-49.306198 -7.73591,-11.702101 -13.66749,-17.916717 -20.02343,-20.978866 -2.8044,-1.351099 -7.30346,-2.567443 -10.60224,-2.866371 l -2.29263,-0.207753 v -1.930307 -1.930308 h 31.5545 31.55451 v 1.972157 1.972157 h -1.33865 c -1.9257,0 -5.7032,0.776009 -7.38267,1.51662 -1.78844,0.788664 -3.90969,2.792566 -4.65749,4.399851 -1.2067,2.593581 -0.46163,6.332282 2.29767,11.529532 2.09726,3.950273 22.75076,38.17765 23.10094,38.28332 0.2333,0.0704 7.6813,-10.351478 23.79512,-33.29617 2.42667,-3.455359 4.85877,-7.162433 5.40466,-8.237943 2.0445,-4.027982 1.76717,-9.19107 -0.60983,-11.353188 -1.76429,-1.604797 -6.50433,-2.833887 -10.95154,-2.83973 l -1.7446,-0.0023 v -1.972158 -1.972156 h 24.2727 24.2727 v 1.972156 1.972158 l -1.13779,0.004 c -1.73343,0.0061 -6.37536,1.045521 -8.45071,1.892327 -3.79513,1.548537 -9.16977,5.824892 -13.10246,10.425033 -3.48723,4.079076 -8.39563,10.838463 -22.95183,31.60712 -8.32374,11.876231 -13.81558,19.981951 -13.71532,20.243221 0.3189,0.83104 31.4477,52.330786 35.62264,58.934386 2.30781,3.65031 4.9829,7.68247 5.94466,8.96034 3.85899,5.12739 7.80834,8.70197 11.45658,10.36942 1.68454,0.76993 6.13092,1.68331 8.19442,1.68331 h 1.17389 v 1.97215 1.97216 h -29.27894 -29.27895 v -1.92672 -1.92672 l 2.6819,-0.19037 c 3.17875,-0.22564 6.03376,-1.05064 7.49634,-2.16621 1.49747,-1.14217 2.76891,-3.53801 3.18421,-6.00014 0.39714,-2.35459 0.23938,-3.61318 -0.70796,-5.64798 -1.24258,-2.6689 -28.52305,-48.67763 -28.92974,-48.79023 -0.46636,-0.12912 -32.63473,45.89947 -34.03768,48.70331 -1.29049,2.57911 -1.31052,2.66635 -1.19865,5.22306 0.0944,2.15721 0.2545,2.8403 0.93992,4.00989 1.56761,2.67493 4.11039,3.95295 9.03711,4.54212 l 3.00165,0.35895 v 1.90552 1.90552 h -24.121 -24.12099 V 178.027 Z"
       style="opacity:1;fill:url(#linearGradient4744);fill-opacity:1;stroke:#ff7f2a;stroke-width:0.91022617;stroke-miterlimit:4;stroke-dasharray:none;font-variant-east_asian:normal;vector-effect:none;stroke-linecap:butt;stroke-linejoin:miter;stroke-dashoffset:0;stroke-opacity:1" />
  </g>
  <g
     id="g4771"
     transform="matrix(0.23254296,0,0,0.23254296,375.94626,156.48341)"
     style="fill:#a18f50;fill-opacity:1">
    <path
       style="fill:#a18f50;fill-opacity:1"
       d="m -45.61703,466.2645 c -2.82396,-1.31491 -6.33471,-3.97908 -7.8343,-5.94514 C -58.83338,453.26312 -59,451.44252 -59,399.68923 c 0,-54.18872 0.0778,-54.86504 7.11765,-61.90492 7.70812,-7.70812 -12.35815,-7.11765 241.88235,-7.11765 254.2405,0 234.17423,-0.59047 241.88235,7.11765 7.03989,7.03988 7.11765,7.7162 7.11765,61.90492 0,51.75329 -0.16662,53.57389 -5.54867,60.63013 -1.49959,1.96606 -5.01034,4.63023 -7.8343,5.94514 L 420.5,468.64712 H 190 -40.5 Z M 70.5,442.63367 c 3.3,-0.51628 8.7,-1.98296 12,-3.25928 l 6,-2.32059 0.5,-12.27569 c 0.54962,-13.494 1.31932,-15.11145 7.19113,-15.11145 2.1422,0 2.80887,-0.47469 2.80887,-2 0,-1.93651 -0.66667,-2 -21,-2 -20.33333,0 -21,0.0635 -21,2 0,1.68035 0.66667,2 4.17126,2 7.01191,0 7.83122,1.5105 7.81343,14.40499 -0.008,6.10225 -0.34592,11.59014 -0.75,12.19531 -1.45869,2.18459 -5.25935,3.42756 -10.94226,3.57857 -11.95812,0.31776 -18.17529,-4.47195 -22.34917,-17.21784 -2.19851,-6.71364 -2.44001,-9.11387 -2.41079,-23.96103 0.0284,-14.44278 0.30409,-17.22995 2.21106,-22.35456 4.1673,-11.19883 10.73802,-16.58792 20.25647,-16.61371 9.33997,-0.0253 20.07425,7.97327 26.46237,19.71827 4.72665,8.69025 5.53763,7.33559 5.53763,-9.25 0,-11.40407 -0.28419,-14.5 -1.33102,-14.5 -0.73206,0 -1.92033,1.10113 -2.6406,2.44696 -1.99763,3.73262 -3.66791,3.84441 -12.43674,0.83242 -10.46476,-3.59452 -25.06416,-3.8695 -33.18571,-0.62504 -12.4014,4.9542 -21.73179,15.02345 -25.54059,27.5631 -1.75821,5.78853 -2.04059,8.73668 -1.65888,17.31939 0.40307,9.06284 0.85105,11.13768 3.61845,16.75908 6.51253,13.22883 18.92595,22.02052 33.17509,23.49597 8.14694,0.84359 14.19152,0.63142 23.5,-0.82487 z M 159,443.615 c 29.45114,-4.69657 45.27278,-36.63773 31.96254,-64.52683 -3.60721,-7.55822 -12.73252,-16.39676 -20.84774,-20.19259 -5.13557,-2.40211 -6.72852,-2.63065 -18.66341,-2.67759 l -13.04861,-0.0513 -7.623,3.76588 c -15.48824,7.65144 -23.77401,21.51749 -23.74347,39.73412 0.0228,13.58664 3.12634,21.82133 11.72429,31.10814 10.13977,10.95216 24.11493,15.41156 40.2394,12.8402 z m -13.5,-4.47767 c -10.3897,-2.67475 -15.36792,-13.24716 -16.23117,-34.47067 -1.11476,-27.4071 5.34587,-42.93148 18.6066,-44.71012 8.71284,-1.16863 16.05252,2.72825 20.10687,10.67542 4.12618,8.08799 5.23203,15.59599 4.79199,32.5347 -0.35335,13.60176 -0.75395,16.8642 -2.67265,21.7656 -4.93281,12.60103 -12.91947,17.21255 -24.60164,14.20507 z m 129.94908,0.27933 c 0.26795,-1.2375 1.18895,-6.3 2.04665,-11.25 0.85771,-4.95 1.8078,-10.2375 2.11132,-11.75 0.44335,-2.20925 0.19212,-2.74013 -1.27759,-2.6998 -1.23691,0.034 -2.7747,2.0424 -4.74782,6.20094 -3.79537,7.9991 -9.89165,13.89924 -16.59984,16.06574 -6.13326,1.98082 -19.97704,2.28788 -21.7818,0.48312 -0.88801,-0.88801 -1.2,-10.37778 -1.2,-36.5 0,-33.96667 0.0755,-35.37554 2,-37.3 1.33333,-1.33333 3.33333,-2 6,-2 2.88889,0 4,-0.41667 4,-1.5 0,-1.28805 -3.12037,-1.5 -22.08333,-1.5 -17.18808,0 -21.99124,0.27629 -21.66787,1.24639 0.2285,0.68551 2.09656,1.51964 4.15123,1.85362 7.26056,1.18017 7.06375,0.21924 7.41115,36.18442 0.19836,20.53472 -0.0702,33.51554 -0.74079,35.80086 -1.112,3.78985 -4.20781,5.91471 -8.61744,5.91471 -1.51373,0 -2.45295,0.57434 -2.45295,1.5 0,1.30592 4.72011,1.5 36.48095,1.5 h 36.48095 z m 65.19558,0.1801 c 12.27526,-3.70638 20.68835,-11.00475 26.17152,-22.70381 2.44926,-5.22582 2.68382,-6.78579 2.68382,-17.8489 v -12.12261 l -4,-7.83401 c -4.65276,-9.11243 -10.88277,-14.84106 -20.15633,-18.53416 -5.50865,-2.19377 -7.37724,-2.34738 -32.59367,-2.67947 -23.80908,-0.31355 -26.75,-0.17939 -26.75,1.22029 0,0.98683 0.88095,1.57257 2.36514,1.57257 1.30083,0 3.55083,0.93266 5,2.07258 L 296,364.81182 v 34.20491 c 0,38.01918 0.004,37.99577 -6.52874,39.2213 -1.98264,0.37194 -3.47126,1.24675 -3.47126,2.03992 0,1.1462 4.1727,1.38871 23.89466,1.38871 21.28902,0 24.64223,-0.22572 30.75,-2.0699 z m -22.77222,-3.58208 c -1.81479,-2.18442 -2.61264,-64.79736 -0.8996,-70.59802 l 1.10744,-3.75 5.70986,0.022 c 13.63452,0.0524 20.73345,8.12146 23.97767,27.25426 1.29712,7.64976 1.37215,10.93026 0.43968,19.22378 -1.53019,13.60957 -3.41185,18.62967 -8.74122,23.32078 -6.65847,5.86101 -18.4346,8.32993 -21.59383,4.52724 z"
       id="path4773"
       inkscape:connector-curvature="0"
       sodipodi:nodetypes="scscssscscccssccssssssccsscsscsscssssssscscccscsccssccscsscccsssscsssccscssscsssscscsssccssssscsccscccc" />
  </g>
</svg>
